%YAML 1.1
%TAG !u! tag:unity3d.com,2011:
--- !u!1 &2807322151782535041
GameObject:
  m_ObjectHideFlags: 0
  m_CorrespondingSourceObject: {fileID: 0}
  m_PrefabInstance: {fileID: 0}
  m_PrefabAsset: {fileID: 0}
  serializedVersion: 6
  m_Component:
  - component: {fileID: 2807322151782535043}
  - component: {fileID: 2807322151782535042}
  - component: {fileID: 4875857200462417941}
  m_Layer: 0
  m_Name: FoodMeats
  m_TagString: Untagged
  m_Icon: {fileID: 0}
  m_NavMeshLayer: 0
  m_StaticEditorFlags: 0
  m_IsActive: 1
--- !u!4 &2807322151782535043
Transform:
  m_ObjectHideFlags: 0
  m_CorrespondingSourceObject: {fileID: 0}
  m_PrefabInstance: {fileID: 0}
  m_PrefabAsset: {fileID: 0}
  m_GameObject: {fileID: 2807322151782535041}
  m_LocalRotation: {x: 0, y: 0, z: 0, w: 1}
  m_LocalPosition: {x: 0.16004604, y: 0.33806604, z: 0}
  m_LocalScale: {x: 1, y: 1, z: 1}
  m_Children:
  - {fileID: 4125365950066146129}
  - {fileID: 1804419301682314795}
  - {fileID: 6125679902101979522}
  m_Father: {fileID: 0}
  m_RootOrder: 0
  m_LocalEulerAnglesHint: {x: 0, y: 0, z: 0}
--- !u!114 &2807322151782535042
MonoBehaviour:
  m_ObjectHideFlags: 0
  m_CorrespondingSourceObject: {fileID: 0}
  m_PrefabInstance: {fileID: 0}
  m_PrefabAsset: {fileID: 0}
  m_GameObject: {fileID: 2807322151782535041}
  m_Enabled: 1
  m_EditorHideFlags: 0
  m_Script: {fileID: 11500000, guid: 6e1343fad1e44cd4c9c49475ae32a900, type: 3}
  m_Name: 
  m_EditorClassIdentifier: 
  leftAnchors:
  - {fileID: 4125365950066146131}
  - {fileID: 1804419301682314793}
  - {fileID: 6125679902101979520}
  rightAnchors: []
  leftSpriteFood:
  - {fileID: 21300000, guid: 6428686fab313f94c8129fe0c5401d99, type: 3}
  - {fileID: 21300000, guid: bb19a068d0d86ec4daab601004424151, type: 3}
  - {fileID: 21300000, guid: f23c5a27477ac9848802f376fa4e67b6, type: 3}
  rightSpriteFood: []
  rangeRandom: 2
--- !u!61 &4875857200462417941
BoxCollider2D:
  m_ObjectHideFlags: 0
  m_CorrespondingSourceObject: {fileID: 0}
  m_PrefabInstance: {fileID: 0}
  m_PrefabAsset: {fileID: 0}
  m_GameObject: {fileID: 2807322151782535041}
  m_Enabled: 1
  m_Density: 1
  m_Material: {fileID: 0}
  m_IsTrigger: 1
  m_UsedByEffector: 0
  m_UsedByComposite: 0
  m_Offset: {x: 0, y: 0}
  m_SpriteTilingProperty:
    border: {x: 0, y: 0, z: 0, w: 0}
    pivot: {x: 0.5, y: 0.5}
    oldSize: {x: 1.71, y: 2.53}
    newSize: {x: 1.71, y: 2.53}
    adaptiveTilingThreshold: 0.5
    drawMode: 0
    adaptiveTiling: 0
  m_AutoTiling: 0
  serializedVersion: 2
  m_Size: {x: 1.71, y: 2.53}
  m_EdgeRadius: 0
--- !u!1001 &1683437980114986129
PrefabInstance:
  m_ObjectHideFlags: 0
  serializedVersion: 2
  m_Modification:
    m_TransformParent: {fileID: 2807322151782535043}
    m_Modifications:
    - target: {fileID: 1033101293373512375, guid: d9877235935281a4586293e69cd460f9,
        type: 3}
      propertyPath: m_Name
      value: FoodEatingB
      objectReference: {fileID: 0}
    - target: {fileID: 1033101293373512378, guid: d9877235935281a4586293e69cd460f9,
        type: 3}
      propertyPath: m_LocalPosition.x
      value: 0.55
      objectReference: {fileID: 0}
    - target: {fileID: 1033101293373512378, guid: d9877235935281a4586293e69cd460f9,
        type: 3}
      propertyPath: m_LocalPosition.y
      value: -0.02
      objectReference: {fileID: 0}
    - target: {fileID: 1033101293373512378, guid: d9877235935281a4586293e69cd460f9,
        type: 3}
      propertyPath: m_LocalPosition.z
      value: 0
      objectReference: {fileID: 0}
    - target: {fileID: 1033101293373512378, guid: d9877235935281a4586293e69cd460f9,
        type: 3}
      propertyPath: m_LocalRotation.x
      value: 0
      objectReference: {fileID: 0}
    - target: {fileID: 1033101293373512378, guid: d9877235935281a4586293e69cd460f9,
        type: 3}
      propertyPath: m_LocalRotation.y
      value: 0
      objectReference: {fileID: 0}
    - target: {fileID: 1033101293373512378, guid: d9877235935281a4586293e69cd460f9,
        type: 3}
      propertyPath: m_LocalRotation.z
      value: 0
      objectReference: {fileID: 0}
    - target: {fileID: 1033101293373512378, guid: d9877235935281a4586293e69cd460f9,
        type: 3}
      propertyPath: m_LocalRotation.w
      value: 1
      objectReference: {fileID: 0}
    - target: {fileID: 1033101293373512378, guid: d9877235935281a4586293e69cd460f9,
        type: 3}
      propertyPath: m_RootOrder
      value: 1
      objectReference: {fileID: 0}
    - target: {fileID: 1033101293373512378, guid: d9877235935281a4586293e69cd460f9,
        type: 3}
      propertyPath: m_LocalEulerAnglesHint.x
      value: 0
      objectReference: {fileID: 0}
    - target: {fileID: 1033101293373512378, guid: d9877235935281a4586293e69cd460f9,
        type: 3}
      propertyPath: m_LocalEulerAnglesHint.y
      value: 0
      objectReference: {fileID: 0}
    - target: {fileID: 1033101293373512378, guid: d9877235935281a4586293e69cd460f9,
        type: 3}
      propertyPath: m_LocalEulerAnglesHint.z
      value: 0
      objectReference: {fileID: 0}
    m_RemovedComponents: []
  m_SourcePrefab: {fileID: 100100000, guid: d9877235935281a4586293e69cd460f9, type: 3}
--- !u!4 &1804419301682314795 stripped
Transform:
  m_CorrespondingSourceObject: {fileID: 1033101293373512378, guid: d9877235935281a4586293e69cd460f9,
    type: 3}
  m_PrefabInstance: {fileID: 1683437980114986129}
  m_PrefabAsset: {fileID: 0}
--- !u!114 &1804419301682314793 stripped
MonoBehaviour:
  m_CorrespondingSourceObject: {fileID: 1033101293373512376, guid: d9877235935281a4586293e69cd460f9,
    type: 3}
  m_PrefabInstance: {fileID: 1683437980114986129}
  m_PrefabAsset: {fileID: 0}
  m_GameObject: {fileID: 0}
  m_Enabled: 1
  m_EditorHideFlags: 0
  m_Script: {fileID: 11500000, guid: d1902bc83ff46bd4da6c2f497e66be2a, type: 3}
  m_Name: 
  m_EditorClassIdentifier: 
--- !u!1001 &3969481473436246507
PrefabInstance:
  m_ObjectHideFlags: 0
  serializedVersion: 2
  m_Modification:
    m_TransformParent: {fileID: 2807322151782535043}
    m_Modifications:
    - target: {fileID: 1033101293373512375, guid: d9877235935281a4586293e69cd460f9,
        type: 3}
      propertyPath: m_Name
      value: FoodEatingA
      objectReference: {fileID: 0}
    - target: {fileID: 1033101293373512378, guid: d9877235935281a4586293e69cd460f9,
        type: 3}
      propertyPath: m_LocalPosition.x
      value: -1.74
      objectReference: {fileID: 0}
    - target: {fileID: 1033101293373512378, guid: d9877235935281a4586293e69cd460f9,
        type: 3}
      propertyPath: m_LocalPosition.y
      value: 0.05
      objectReference: {fileID: 0}
    - target: {fileID: 1033101293373512378, guid: d9877235935281a4586293e69cd460f9,
        type: 3}
      propertyPath: m_LocalPosition.z
      value: 0
      objectReference: {fileID: 0}
    - target: {fileID: 1033101293373512378, guid: d9877235935281a4586293e69cd460f9,
        type: 3}
      propertyPath: m_LocalRotation.x
      value: 0
      objectReference: {fileID: 0}
    - target: {fileID: 1033101293373512378, guid: d9877235935281a4586293e69cd460f9,
        type: 3}
      propertyPath: m_LocalRotation.y
      value: 0
      objectReference: {fileID: 0}
    - target: {fileID: 1033101293373512378, guid: d9877235935281a4586293e69cd460f9,
        type: 3}
      propertyPath: m_LocalRotation.z
      value: 0
      objectReference: {fileID: 0}
    - target: {fileID: 1033101293373512378, guid: d9877235935281a4586293e69cd460f9,
        type: 3}
      propertyPath: m_LocalRotation.w
      value: 1
      objectReference: {fileID: 0}
    - target: {fileID: 1033101293373512378, guid: d9877235935281a4586293e69cd460f9,
        type: 3}
      propertyPath: m_RootOrder
      value: 0
      objectReference: {fileID: 0}
    - target: {fileID: 1033101293373512378, guid: d9877235935281a4586293e69cd460f9,
        type: 3}
      propertyPath: m_LocalEulerAnglesHint.x
      value: 0
      objectReference: {fileID: 0}
    - target: {fileID: 1033101293373512378, guid: d9877235935281a4586293e69cd460f9,
        type: 3}
      propertyPath: m_LocalEulerAnglesHint.y
      value: 0
      objectReference: {fileID: 0}
    - target: {fileID: 1033101293373512378, guid: d9877235935281a4586293e69cd460f9,
        type: 3}
      propertyPath: m_LocalEulerAnglesHint.z
      value: 0
      objectReference: {fileID: 0}
    - target: {fileID: 4342303467853524876, guid: d9877235935281a4586293e69cd460f9,
        type: 3}
      propertyPath: m_Enabled
      value: 1
      objectReference: {fileID: 0}
    m_RemovedComponents: []
  m_SourcePrefab: {fileID: 100100000, guid: d9877235935281a4586293e69cd460f9, type: 3}
--- !u!4 &4125365950066146129 stripped
Transform:
  m_CorrespondingSourceObject: {fileID: 1033101293373512378, guid: d9877235935281a4586293e69cd460f9,
    type: 3}
  m_PrefabInstance: {fileID: 3969481473436246507}
  m_PrefabAsset: {fileID: 0}
--- !u!114 &4125365950066146131 stripped
MonoBehaviour:
  m_CorrespondingSourceObject: {fileID: 1033101293373512376, guid: d9877235935281a4586293e69cd460f9,
    type: 3}
  m_PrefabInstance: {fileID: 3969481473436246507}
  m_PrefabAsset: {fileID: 0}
  m_GameObject: {fileID: 0}
  m_Enabled: 1
  m_EditorHideFlags: 0
  m_Script: {fileID: 11500000, guid: d1902bc83ff46bd4da6c2f497e66be2a, type: 3}
  m_Name: 
  m_EditorClassIdentifier: 
--- !u!1001 &6581053513433848632
PrefabInstance:
  m_ObjectHideFlags: 0
  serializedVersion: 2
  m_Modification:
    m_TransformParent: {fileID: 2807322151782535043}
    m_Modifications:
    - target: {fileID: 1033101293373512375, guid: d9877235935281a4586293e69cd460f9,
        type: 3}
      propertyPath: m_Name
      value: FoodEatingC
      objectReference: {fileID: 0}
    - target: {fileID: 1033101293373512378, guid: d9877235935281a4586293e69cd460f9,
        type: 3}
      propertyPath: m_LocalPosition.x
      value: -0.58
      objectReference: {fileID: 0}
    - target: {fileID: 1033101293373512378, guid: d9877235935281a4586293e69cd460f9,
        type: 3}
      propertyPath: m_LocalPosition.y
      value: -1.56
      objectReference: {fileID: 0}
    - target: {fileID: 1033101293373512378, guid: d9877235935281a4586293e69cd460f9,
        type: 3}
      propertyPath: m_LocalPosition.z
      value: 0
      objectReference: {fileID: 0}
    - target: {fileID: 1033101293373512378, guid: d9877235935281a4586293e69cd460f9,
        type: 3}
      propertyPath: m_LocalRotation.x
      value: 0
      objectReference: {fileID: 0}
    - target: {fileID: 1033101293373512378, guid: d9877235935281a4586293e69cd460f9,
        type: 3}
      propertyPath: m_LocalRotation.y
      value: 0
      objectReference: {fileID: 0}
    - target: {fileID: 1033101293373512378, guid: d9877235935281a4586293e69cd460f9,
        type: 3}
      propertyPath: m_LocalRotation.z
      value: 0
      objectReference: {fileID: 0}
    - target: {fileID: 1033101293373512378, guid: d9877235935281a4586293e69cd460f9,
        type: 3}
      propertyPath: m_LocalRotation.w
      value: 1
      objectReference: {fileID: 0}
    - target: {fileID: 1033101293373512378, guid: d9877235935281a4586293e69cd460f9,
        type: 3}
      propertyPath: m_RootOrder
      value: 2
      objectReference: {fileID: 0}
    - target: {fileID: 1033101293373512378, guid: d9877235935281a4586293e69cd460f9,
        type: 3}
      propertyPath: m_LocalEulerAnglesHint.x
      value: 0
      objectReference: {fileID: 0}
    - target: {fileID: 1033101293373512378, guid: d9877235935281a4586293e69cd460f9,
        type: 3}
      propertyPath: m_LocalEulerAnglesHint.y
      value: 0
      objectReference: {fileID: 0}
    - target: {fileID: 1033101293373512378, guid: d9877235935281a4586293e69cd460f9,
        type: 3}
      propertyPath: m_LocalEulerAnglesHint.z
      value: 0
      objectReference: {fileID: 0}
    m_RemovedComponents: []
  m_SourcePrefab: {fileID: 100100000, guid: d9877235935281a4586293e69cd460f9, type: 3}
--- !u!4 &6125679902101979522 stripped
Transform:
  m_CorrespondingSourceObject: {fileID: 1033101293373512378, guid: d9877235935281a4586293e69cd460f9,
    type: 3}
  m_PrefabInstance: {fileID: 6581053513433848632}
  m_PrefabAsset: {fileID: 0}
--- !u!114 &6125679902101979520 stripped
MonoBehaviour:
  m_CorrespondingSourceObject: {fileID: 1033101293373512376, guid: d9877235935281a4586293e69cd460f9,
    type: 3}
  m_PrefabInstance: {fileID: 6581053513433848632}
  m_PrefabAsset: {fileID: 0}
  m_GameObject: {fileID: 0}
  m_Enabled: 1
  m_EditorHideFlags: 0
  m_Script: {fileID: 11500000, guid: d1902bc83ff46bd4da6c2f497e66be2a, type: 3}
  m_Name: 
  m_EditorClassIdentifier: 
